<svg xmlns="http://www.w3.org/2000/svg" width="108.993" height="113.804" viewBox="0 0 108.993 113.804">
  <g id="Group_2604" data-name="Group 2604" transform="translate(-2485.348 -124.944)">
    <g id="Group_2603" data-name="Group 2603" transform="translate(2536.245 198.648)">
      <path id="Path_94" data-name="Path 94" d="M2599.3,225.385a8.415,8.415,0,0,0-2.81-4.464c-.523-.432-1.037-.872-1.551-1.313l-.592-.507c-.068-.059-.137-.118-.209-.184a5.522,5.522,0,0,0,.6-.01,3.1,3.1,0,0,0,2.756-2.528,2.9,2.9,0,0,0-1.883-3.082,3.37,3.37,0,0,0-2.8.1c-.724.338-1.448.672-2.178,1.009l-.73.338-.011-.023c-.075-.14-.139-.262-.2-.379a37.007,37.007,0,0,0-3.47-6.018,6.05,6.05,0,0,0-4.894-2.443c-7.34-.046-14.78-.046-22.111,0a5.83,5.83,0,0,0-4.928,2.494,37,37,0,0,0-2,3.144c-.443.776-.833,1.556-1.247,2.383-.141.28-.282.56-.425.843-.23-.108-.457-.219-.683-.327-.7-.34-1.37-.661-2.071-.935a5.353,5.353,0,0,0-1.928-.4,2.919,2.919,0,0,0-.046,5.838c.16.009.321.009.5.006-.315.275-.635.547-.955.818-.7.593-1.42,1.205-2.081,1.847a6.214,6.214,0,0,0-2.115,4.359c-.049,3.281-.032,6.614-.016,9.838l.007,1.24a4.347,4.347,0,0,0,1.081,3.137,2.756,2.756,0,0,1,.716,2.366c-.012.151-.01.3-.007.457l0,.182a2.82,2.82,0,0,0,2.778,2.763c3.094.009,6.189.01,9.3,0a2.792,2.792,0,0,0,2.776-2.8v-.751h24.763v.776a2.806,2.806,0,0,0,2.8,2.782h.017q2.307.008,4.611.007t4.615-.007h.046a2.717,2.717,0,0,0,2.654-2.094,5.374,5.374,0,0,0,.1-1.584,2.386,2.386,0,0,1,.663-2.005,6.136,6.136,0,0,0,.914-1.781,6.605,6.605,0,0,0,.232-.7l.007-.028Zm-11.114-7.433a3.878,3.878,0,0,1-1.621.485c-4.2.029-8.474.026-12.606.024l-3.614,0h0l-3.72,0c-4.141,0-8.42,0-12.622-.024a3.566,3.566,0,0,1-1.594-.444.852.852,0,0,1-.118-.074.82.82,0,0,1-.136-1.161l.923-1.757c.692-1.32,1.385-2.639,2.085-3.944a10.985,10.985,0,0,1,.875-1.277,4.1,4.1,0,0,1,3.482-1.665c7.159-.018,14.389-.021,21.494-.006h.038a4.548,4.548,0,0,1,4.076,2.562c1.2,2.159,2.356,4.371,3.419,6.434A.648.648,0,0,1,2588.189,217.952Zm8.857,13.184c0,.6.01,1.2.01,1.8a3.2,3.2,0,0,1-3.545,3.534H2546.9a3.037,3.037,0,0,1-.523,0,3.161,3.161,0,0,1-2.895-3.42c-.005-.793,0-1.585,0-2.377.006-1.233.014-2.507-.016-3.766a4.873,4.873,0,0,1,1.722-3.949c.844-.755,1.727-1.5,2.58-2.218q.547-.461,1.091-.924l1.228-1.048a4.3,4.3,0,0,0,4.041,1.951q16.264-.005,32.509-.005a4.2,4.2,0,0,0,3.824-1.93l2.241,1.91c.811.689,1.621,1.378,2.436,2.076a5.184,5.184,0,0,1,1.93,4.3C2597.024,228.433,2597.034,229.808,2597.046,231.136Zm-49.042,7.6h.366c15-.014,30.123-.011,44.95,0a6.517,6.517,0,0,0,3.53-.864,2.86,2.86,0,0,1-2.179,2.082,5.157,5.157,0,0,1-1.068.116c-15.425.015-31.062.011-46.478-.012a5.368,5.368,0,0,1-2.021-.415,2.677,2.677,0,0,1-1.481-1.8A7.507,7.507,0,0,0,2548,238.733Zm.778-22.08c-.617.02-1.237.016-1.859.014h-.691a.807.807,0,0,1-.864-.483.7.7,0,0,1,.112-.56.855.855,0,0,1,.675-.326.871.871,0,0,1,.377.087c.668.288,1.328.595,1.988.9l.6.278A2.4,2.4,0,0,1,2548.782,216.654Zm42.592-.087.25-.117c.778-.359,1.558-.719,2.338-1.059a1.092,1.092,0,0,1,.5-.066.816.816,0,0,1,.765.681.8.8,0,0,1-.785.646h0c-.89.025-1.819.025-2.8.006A1.461,1.461,0,0,1,2591.374,216.567Zm-45.527,27.108a.6.6,0,0,1-.416-.2.618.618,0,0,1-.152-.456c-.012-.255-.007-.511,0-.722v-.022l1.907.019c1.308.014,2.6.026,3.9.036,1.041.005,2.087,0,3.147,0l1.4,0c0,.039,0,.077,0,.115,0,.2.007.388,0,.6a.467.467,0,0,1,0,.08.6.6,0,0,1-.212.411.62.62,0,0,1-.461.138c-3,.01-6,.01-9.021,0A.487.487,0,0,1,2545.848,243.675Zm49.246-.2c-.169.171-.587.239-1.373.222-1-.018-2.015-.024-3.02-.024-.748,0-1.492,0-2.227.005s-1.489.006-2.233.006c-.609,0-1.019-.036-1.185-.218s-.175-.588-.129-1.19h10.32v.036C2595.262,242.9,2595.271,243.293,2595.094,243.47Zm-12.217-.318Z" transform="translate(-2541.214 -205.844)" fill="#3171d6"/>
      <path id="Path_95" data-name="Path 95" d="M2580.083,229.583l-10.543,0c-1.927,0-3.854,0-5.753.006a2.538,2.538,0,0,0-.654.026,2.479,2.479,0,0,0-2.021,2.857,16.663,16.663,0,0,0,.736,3.187,2.209,2.209,0,0,0,2.112,1.606,2.069,2.069,0,0,0,.211-.01c5.237-.023,10.56-.015,15.708-.006h.2a2.128,2.128,0,0,0,2.175-1.475,15.323,15.323,0,0,0,.77-2.8,2.994,2.994,0,0,0-.523-2.477A3.06,3.06,0,0,0,2580.083,229.583Zm-8.016,2.267q3.991,0,7.986,0c.4,0,.626.046.706.145s.082.323,0,.707c-.1.5-.24,1-.375,1.491-.051.185-.1.369-.155.573a.289.289,0,0,1-.343.221q-3.414-.007-6.823-.006-4.373,0-8.747-.012a.65.65,0,0,1-.354-.14,14.749,14.749,0,0,1-.585-2.285c-.017-.12-.072-.483.019-.589s.381-.106.633-.106h6.855l-.008,0Z" transform="translate(-2542.98 -207.955)" fill="#3171d6"/>
      <path id="Path_96" data-name="Path 96" d="M2556.875,231.544l-.117-.075c-1.771-1.113-3.6-2.265-5.428-3.332a3.627,3.627,0,0,0-4.263.244,4.741,4.741,0,0,0-1.875,4.446,4.4,4.4,0,0,0,4.512,4.243c.621-.037,1.258-.028,1.879-.018.287,0,.576.009.863.009l.164,0c.252,0,.5.006.757.011.306.006.616.011.928.011.437,0,.878-.011,1.314-.049a2.611,2.611,0,0,0,2.173-1.24,3.071,3.071,0,0,0-.906-4.248Zm-9.43.627a2.56,2.56,0,0,1,.917-1.906,1.5,1.5,0,0,1,1.863-.139q1.612.977,3.216,1.969c.715.441,1.431.882,2.159,1.326a.779.779,0,0,1,.362.949c-.074.276-.243.455-.776.441-.391-.01-.781-.014-1.172-.014-.275,0-.55,0-.824,0l-3.309,0a2.258,2.258,0,0,1-.478-.016,2.3,2.3,0,0,1-1.958-2.617Z" transform="translate(-2541.563 -207.775)" fill="#3171d6"/>
      <path id="Path_97" data-name="Path 97" d="M2597.328,228.033a3.614,3.614,0,0,0-3.661.079c-1.838,1.092-3.624,2.2-5.6,3.44a3,3,0,0,0-1.265,3.432,2.694,2.694,0,0,0,2.6,2.087q.12,0,.242-.011l3.785,0c.684,0,1.37,0,2.053,0h.1a3.888,3.888,0,0,0,3.209-1.681,4.956,4.956,0,0,0,.9-4A4.457,4.457,0,0,0,2597.328,228.033Zm-.413,6.054a1.827,1.827,0,0,1-1.45.717h-.026l-3.665,0c-.676,0-1.346,0-2.024.013-.471.027-.669-.11-.77-.466a.773.773,0,0,1,.386-.934l4.586-2.82c.225-.14.45-.282.688-.424a1.659,1.659,0,0,1,2.252.388A2.886,2.886,0,0,1,2596.914,234.087Z" transform="translate(-2545.256 -207.776)" fill="#3171d6"/>
    </g>
    <path id="Path_98" data-name="Path 98" d="M2531.692,174.976c4.053,0,8.106,0,12.158-.006.811,0,1.518.3,1.692,1.065a2.768,2.768,0,0,1-.227,1.913,2.094,2.094,0,0,1-1.566.692c-7.96.041-15.921.029-23.882.02-1.325,0-1.991-.661-1.971-1.89.019-1.156.691-1.788,1.963-1.79C2523.8,174.971,2527.748,174.977,2531.692,174.976Z" transform="translate(-2.895 -4.449)" fill="#b0c2e0"/>
    <path id="Path_99" data-name="Path 99" d="M2535.962,200.262q4.181,0,8.361,0c1.386,0,2.043.615,2.068,1.921a1.789,1.789,0,0,1-2.014,1.985q-8.361.01-16.721.005c-1.425,0-2.148-.7-2.129-2,.02-1.325.7-1.92,2.184-1.92Z" transform="translate(-3.573 -6.699)" fill="#b0c2e0"/>
    <path id="Path_100" data-name="Path 100" d="M2507.622,210.6c1.848-3.088,3.736-6.224,5.6-9.374a1.759,1.759,0,0,1,2.309-.8,1.91,1.91,0,0,1,.835,2.5c-.551,1.127-1.195,2.212-1.839,3.291q-2.629,4.4-5.3,8.778a1.748,1.748,0,0,1-2.73.106c-1.089-1.236-2.173-2.478-3.276-3.7a2.119,2.119,0,0,1,.647-3.425,1.477,1.477,0,0,1,1.226.269C2505.975,208.958,2506.765,209.784,2507.622,210.6Z" transform="translate(-1.536 -6.698)" fill="#b0c2e0"/>
    <path id="Path_101" data-name="Path 101" d="M2507.533,172.658c.8-1.3,1.547-2.477,2.267-3.672,1.132-1.88,2.219-3.785,3.378-5.647a1.756,1.756,0,0,1,2.581-.732,1.964,1.964,0,0,1,.458,2.7q-3.207,5.376-6.431,10.741c-1.131,1.881-2.216,2.022-3.751.415a45.529,45.529,0,0,1-3.032-3.488,1.856,1.856,0,1,1,3.054-2.065C2506.483,171.485,2506.977,172.005,2507.533,172.658Z" transform="translate(-1.534 -3.322)" fill="#b0c2e0"/>
    <path id="Path_102" data-name="Path 102" d="M2535.959,162.331q4.178,0,8.355,0c1.368,0,2.057.6,2.076,1.783.021,1.254-.671,1.9-2.074,1.9q-8.355.007-16.71,0c-1.378,0-2.051-.593-2.072-1.786-.023-1.263.646-1.892,2.069-1.9C2530.389,162.323,2533.174,162.33,2535.959,162.331Z" transform="translate(-3.574 -3.325)" fill="#b0c2e0"/>
    <path id="Path_103" data-name="Path 103" d="M2530.787,226.182h-36.469a6.237,6.237,0,0,1-6.236-6.236V146.571a6.237,6.237,0,0,1,6.236-6.237h7.463v1.923a4.2,4.2,0,0,0,4.2,4.2h31.931a4.2,4.2,0,0,0,4.2-4.2v-1.923h7.462a6.237,6.237,0,0,1,6.237,6.237V193.18h2.733V146.571a8.981,8.981,0,0,0-8.97-8.97H2542.1v-1.593a4.2,4.2,0,0,0-4.2-4.2h-8.318a7.692,7.692,0,0,0-15.295,0h-8.318a4.2,4.2,0,0,0-4.2,4.2V137.6h-7.463a8.98,8.98,0,0,0-8.969,8.97v73.375a8.98,8.98,0,0,0,8.969,8.969h36.469Zm-8.845-98.5a4.961,4.961,0,1,1-4.96,4.961A4.966,4.966,0,0,1,2521.941,127.677Zm-17.427,8.331a1.463,1.463,0,0,1,1.462-1.463h8.521a7.682,7.682,0,0,0,14.889,0h8.52a1.463,1.463,0,0,1,1.462,1.463v6.249a1.462,1.462,0,0,1-1.462,1.462h-31.931a1.462,1.462,0,0,1-1.462-1.462Z" transform="translate(0 0)" fill="#b0c2e0"/>
    <path id="Path_104" data-name="Path 104" d="M2536.4,216.623v-.1l0-.1a7.514,7.514,0,0,1,1.009-3.508h-5.532c-3.982,0-7.964-.007-11.947,0-1.385,0-2.031.646-2.032,1.956s.659,1.942,2.047,1.944q8.232.005,16.465,0C2536.408,216.751,2536.4,216.688,2536.4,216.623Z" transform="translate(-2.895 -7.824)" fill="#b0c2e0"/>
  </g>
</svg>
