<svg xmlns="http://www.w3.org/2000/svg" xmlns:xlink="http://www.w3.org/1999/xlink" width="250.234" height="58.755" viewBox="0 0 250.234 58.755">
  <defs>
    <clipPath id="clip-path">
      <path id="Path_5" data-name="Path 5" d="M60.649,431.457a29.378,29.378,0,1,0,29.378-29.378,29.378,29.378,0,0,0-29.378,29.378" transform="translate(-60.649 -402.079)" fill="none"/>
    </clipPath>
  </defs>
  <g id="Group_50" data-name="Group 50" transform="translate(-9177.039 8248.932)">
    <g id="Group_24" data-name="Group 24" transform="translate(9177.039 -8248.932)">
      <g id="Group_39" data-name="Group 39" transform="translate(0 0)">
        <g id="Group_38" data-name="Group 38" transform="translate(0 0)" clip-path="url(#clip-path)">
          <rect id="Rectangle_2228" data-name="Rectangle 2228" width="58.756" height="58.755" transform="translate(0 0)" fill="#004b86"/>
        </g>
      </g>
      <path id="Path_6" data-name="Path 6" d="M110.018,447.874c-.812-1.276.109-3.318,2.058-4.557s4.188-1.211,5,.066-.107,3.318-2.055,4.558-4.188,1.211-5-.067m4.791-8a3.531,3.531,0,0,0,1.258.621c1.281.35,2.495,0,2.712-.784s-.648-1.707-1.931-2.06c-1.211-.334-2.363-.041-2.669.659h-1.044l.809,1.564Zm3.537,8.693a36.479,36.479,0,0,1-6.471,1.3c-3.37.4-2.838-2.284-2.838-2.284a2.693,2.693,0,0,1-2.924,1.812H86.63a2.694,2.694,0,0,1-2.924-1.812s.532,2.685-2.838,2.284a36.5,36.5,0,0,1-6.471-1.3c-2.635-.682,1.326,7.263,3.558,7.263h36.833c2.232,0,6.193-7.945,3.558-7.263m-31.54-.525h19.131a2.4,2.4,0,0,0,1.863-1.016,26.481,26.481,0,0,1,5.335-6.123,85.816,85.816,0,0,0-33.526,0,26.49,26.49,0,0,1,5.335,6.123,2.4,2.4,0,0,0,1.863,1.016m-11.138-4.663c-.813,1.276.108,3.318,2.057,4.558s4.188,1.211,5-.067-.109-3.318-2.058-4.557-4.187-1.211-5,.066m1.008-2.884a3.527,3.527,0,0,0,1.258-.621H78.8l.809-1.564H78.564c-.305-.7-1.457-.993-2.667-.659-1.284.353-2.145,1.273-1.932,2.06s1.431,1.134,2.712.784m19.7-2.552a81.571,81.571,0,0,1,16.763,1.654,37.928,37.928,0,0,0-2.044-4.491,4.7,4.7,0,0,0-2.506-2.206,52.688,52.688,0,0,0-12.213-1.231A52.685,52.685,0,0,0,84.159,432.9a4.7,4.7,0,0,0-2.507,2.206,38.069,38.069,0,0,0-2.044,4.491,81.571,81.571,0,0,1,16.763-1.654" transform="translate(-66.994 -416.662)" fill="#e0e1e1"/>
      <path id="Path_7" data-name="Path 7" d="M81.21,481.415a2.445,2.445,0,0,1-1.081-.284v2.923a.725.725,0,0,0,.726.724H86.74a.725.725,0,0,0,.725-.724v-2.639Z" transform="translate(-70.248 -441.034)" fill="#fff"/>
      <path id="Path_8" data-name="Path 8" d="M148.8,481.415h-6.255v2.639a.725.725,0,0,0,.725.724h5.885a.725.725,0,0,0,.725-.724v-2.923a2.443,2.443,0,0,1-1.081.284" transform="translate(-101.004 -441.034)" fill="#fff"/>
      <path id="Path_9" data-name="Path 9" d="M271.421,442.559a6.917,6.917,0,0,0-4.212,1.324v-.972h-7v3.862c.864.567.783,1.35.783,2.241v10.911c0,.892.081,1.674-.783,2.242v3.862h7.94v-3.862c-.865-.568-.784-1.35-.784-2.242v-.892a6.413,6.413,0,0,0,3.889,1.242,4.766,4.766,0,0,0,4-1.755c.81-1.081.918-3.484.918-4.132V448.96c0-.649.163-3.511-.757-4.646a4.372,4.372,0,0,0-4-1.756M269.8,453.5c0,.972,0,2.107-1.27,2.107a2.173,2.173,0,0,1-1.161-.351v-7.616a2.457,2.457,0,0,1,1.134-.3c1.3,0,1.3,1.485,1.3,2.4Z" transform="translate(-158.989 -422.026)" fill="#004780"/>
      <path id="Path_10" data-name="Path 10" d="M537.08,443.559c-1.485-.892-4.078-1-5.805-1-1.918,0-4,.163-5.537,1.378-1.593,1.243-1.62,3.241-1.62,5.077v4.429c0,2.241,0,4.321,2.079,5.7,1.485,1,3.97,1.133,5.725,1.133,1.944,0,4.213-.161,5.752-1.485s1.593-3.456,1.593-5.347v-4.429c0-2.16-.135-4.239-2.188-5.455m-5.4,12.746c-1.269,0-1.188-1.4-1.188-2.322v-4.915c0-.946-.162-2.538,1.216-2.538s1.187,1.62,1.187,2.538v4.915c0,.918.082,2.322-1.215,2.322" transform="translate(-289.033 -422.026)" fill="#004780"/>
      <path id="Path_11" data-name="Path 11" d="M310.46,454.217V443.253H303.3v3.807c.864.513.784,1.377.784,2.242v6.32a2.177,2.177,0,0,1-1.027.3c-1.458,0-1.323-1.7-1.323-2.7v-6.724a13.1,13.1,0,0,0-.351-3.24h-6.778v3.807c.811.621.756,1.323.756,2.242v4.725c0,1.458-.135,3.295.595,4.591a4.386,4.386,0,0,0,4,2,7.016,7.016,0,0,0,4.4-1.458v1.108h6.887v-3.808c-.865-.54-.784-1.35-.784-2.241" transform="translate(-175.937 -422.368)" fill="#004780"/>
      <path id="Path_12" data-name="Path 12" d="M234.9,442.559c-5.968.027-7.426,1.891-7.426,6.536v4.618c0,2.052.08,3.943,1.864,5.266,1.4,1.053,4.023,1.485,6.616,1.3,2.62-.188,5.239-.972,6.644-2.187V453.82h-6.373v.622c0,.864-.081,1.863-1.189,1.863s-1.187-1.107-1.187-1.945v-1.565h8.75V448.77c0-4.159-1.432-6.238-7.7-6.212m1.431,6.346h-2.484v-.648c0-.675.108-1.728,1.242-1.728s1.242,1.054,1.242,1.728Z" transform="translate(-142.854 -422.026)" fill="#004780"/>
      <path id="Path_13" data-name="Path 13" d="M210.585,444.235v-1.35h-6.858v3.862c.864.567.782,1.35.782,2.241v4.807c0,.891.082,1.675-.782,2.242V459.9H211.8V456.09c-.541-.269-.7-.405-.81-.972a10.48,10.48,0,0,1-.108-1.837v-1.647c0-2,.486-3.24,2.7-3.24h.513v-5.806a3.581,3.581,0,0,0-.756-.081,2.853,2.853,0,0,0-2.755,1.728" transform="translate(-131.154 -422.001)" fill="#004780"/>
      <path id="Path_14" data-name="Path 14" d="M372.011,449.311c-.919-.189-2.538-.405-2.538-1.62a1.2,1.2,0,0,1,1.241-1.161c1.028,0,1.269.89,1.269,1.673v.621H377.9v-4.05a12.459,12.459,0,0,0-7.669-2.215,9.388,9.388,0,0,0-4.916,1.161,4.646,4.646,0,0,0-1.971,4.267c0,3.726,2.646,4.266,5.7,4.969,1.133.269,3.077.513,3.077,2.052a1.246,1.246,0,0,1-1.215,1.3c-1.377,0-1.269-1.35-1.269-2.322v-.405h-5.995v4.4c1.809,1.729,5.049,2.3,7.453,2.3,3.835,0,7.265-1.133,7.265-5.563,0-4.159-3.026-4.7-6.346-5.4" transform="translate(-209.808 -422.026)" fill="#004780"/>
      <path id="Path_15" data-name="Path 15" d="M428.851,443.559c-1.484-.892-4.077-1-5.805-1-1.918,0-4,.163-5.536,1.378-1.593,1.243-1.621,3.241-1.621,5.077v4.429c0,2.241,0,4.321,2.079,5.7,1.485,1,3.97,1.133,5.726,1.133,1.945,0,4.213-.161,5.751-1.485s1.594-3.456,1.594-5.347v-4.429c0-2.16-.135-4.239-2.189-5.455m-5.4,12.746c-1.27,0-1.188-1.4-1.188-2.322v-4.915c0-.946-.162-2.538,1.215-2.538s1.188,1.62,1.188,2.538v4.915c0,.918.081,2.322-1.215,2.322" transform="translate(-235.701 -422.026)" fill="#004780"/>
      <path id="Path_16" data-name="Path 16" d="M505.166,448.639V431.167H498.09v3.807c.865.568.7,1.4.7,2.3v.919a6.31,6.31,0,0,0-3.754-1.243c-3.214,0-5.05,1.566-5.05,5.293v6.176a4.419,4.419,0,0,1,1.391,3.249,4.505,4.505,0,0,1-.284,1.576,4.327,4.327,0,0,0,3.646,1.421,6.916,6.916,0,0,0,4.213-1.322v.972h6.968V450.5a1.913,1.913,0,0,1-.757-1.863m-6.373.972a2.451,2.451,0,0,1-1.134.3c-1.3,0-1.3-1.486-1.3-2.4V443.75c0-.972,0-2.106,1.27-2.106a2.18,2.18,0,0,1,1.161.351Z" transform="translate(-272.216 -416.413)" fill="#004780"/>
      <path id="Path_17" data-name="Path 17" d="M402.069,433.136l-6.373,1.81v3.322h-.784v3.888h.784v7.94c0,1.486-.082,3.079,1.079,4.24a5.527,5.527,0,0,0,4.214,1.188l3.187-.243v-3.861c-2.134-.244-2.107-.919-2.107-2.755v-6.508h2.107v-3.888h-2.107Z" transform="translate(-225.365 -417.383)" fill="#004780"/>
      <path id="Path_18" data-name="Path 18" d="M462.04,457.278a4.423,4.423,0,0,1,1.418-3.243c-.318-3.544-3.185-4.062-6.317-4.724-.918-.189-2.538-.405-2.538-1.62a1.205,1.205,0,0,1,1.242-1.161c1.027,0,1.269.89,1.269,1.673v.621h5.914v-4.05a12.466,12.466,0,0,0-7.67-2.215,9.386,9.386,0,0,0-4.915,1.161,4.644,4.644,0,0,0-1.972,4.267c0,3.726,2.647,4.266,5.7,4.968,1.134.27,3.078.513,3.078,2.053a1.247,1.247,0,0,1-1.215,1.3c-1.378,0-1.269-1.35-1.269-2.322v-.405h-6v4.4c1.809,1.729,5.05,2.3,7.453,2.3s4.626-.442,5.97-1.848a4.5,4.5,0,0,1-.153-1.148" transform="translate(-251.758 -422.026)" fill="#004780"/>
      <path id="Path_19" data-name="Path 19" d="M338.183,442.559c-5.968.027-7.427,1.891-7.427,6.536v4.618c0,2.052.082,3.943,1.865,5.266,1.4,1.053,4.023,1.485,6.616,1.3,2.619-.188,5.239-.972,6.644-2.187V453.82h-6.373v.622c0,.864-.081,1.863-1.189,1.863s-1.186-1.107-1.186-1.945v-1.565h8.749V448.77c0-4.159-1.432-6.238-7.7-6.212m1.431,6.346h-2.483v-.648c0-.675.107-1.728,1.241-1.728s1.242,1.054,1.242,1.728Z" transform="translate(-193.75 -422.026)" fill="#004780"/>
      <path id="Path_20" data-name="Path 20" d="M477.854,468.559a3.089,3.089,0,0,1,3.106-3.1,3.105,3.105,0,1,1,0,6.211,3.088,3.088,0,0,1-3.106-3.106" transform="translate(-266.236 -433.308)" fill="#004780"/>
    </g>
    <path id="Path_21" data-name="Path 21" d="M110.018,447.874c-.812-1.276.109-3.318,2.058-4.557s4.188-1.211,5,.066-.107,3.318-2.055,4.558-4.188,1.211-5-.067m4.791-8a3.531,3.531,0,0,0,1.258.621c1.281.35,2.495,0,2.712-.784s-.648-1.707-1.931-2.06c-1.211-.334-2.363-.041-2.669.659h-1.044l.809,1.564Zm3.537,8.693a36.479,36.479,0,0,1-6.471,1.3c-3.37.4-2.838-2.284-2.838-2.284a2.693,2.693,0,0,1-2.924,1.812H86.63a2.694,2.694,0,0,1-2.924-1.812s.532,2.685-2.838,2.284a36.5,36.5,0,0,1-6.471-1.3c-2.635-.682,1.326,7.263,3.558,7.263h36.833c2.232,0,6.193-7.945,3.558-7.263m-31.54-.525h19.131a2.4,2.4,0,0,0,1.863-1.016,26.481,26.481,0,0,1,5.335-6.123,85.816,85.816,0,0,0-33.526,0,26.49,26.49,0,0,1,5.335,6.123,2.4,2.4,0,0,0,1.863,1.016m-11.138-4.663c-.813,1.276.108,3.318,2.057,4.558s4.188,1.211,5-.067-.109-3.318-2.058-4.557-4.187-1.211-5,.066m1.008-2.884a3.527,3.527,0,0,0,1.258-.621H78.8l.809-1.564H78.564c-.305-.7-1.457-.993-2.667-.659-1.284.353-2.145,1.273-1.932,2.06s1.431,1.134,2.712.784m19.7-2.552a81.571,81.571,0,0,1,16.763,1.654,37.928,37.928,0,0,0-2.044-4.491,4.7,4.7,0,0,0-2.506-2.206,52.688,52.688,0,0,0-12.213-1.231A52.685,52.685,0,0,0,84.159,432.9a4.7,4.7,0,0,0-2.507,2.206,38.069,38.069,0,0,0-2.044,4.491,81.571,81.571,0,0,1,16.763-1.654" transform="translate(9110.046 -8665.594)" fill="#fff"/>
  </g>
</svg>
